{
  "project_info": {
    "project_number": "62227343866",
    "project_id": "mineher-android",
    "storage_bucket": "mineher-android.appspot.com"
  },
  "client": [
    {
      "client_info": {
        "mobilesdk_app_id": "1:62227343866:android:b29f6940bb0955bf291c43",
        "android_client_info": {
          "package_name": "com.fsd.mineher"
        }
      },
      "oauth_client": [
        {
          "client_id": "62227343866-3ddtv62edjjututv66j343vhtlg0q2mb.apps.googleusercontent.com",
          "client_type": 1,
          "android_info": {
            "package_name": "com.fsd.mineher",
            "certificate_hash": "47d7c9fae50f40f21a1f380dd060c0727f9d544b"
          }
        },
        {
          "client_id": "62227343866-r9bfdtfa0uh0up984kd2i62t5lacakvu.apps.googleusercontent.com",
          "client_type": 1,
          "android_info": {
            "package_name": "com.fsd.mineher",
            "certificate_hash": "4d140c7efc31ef6c153e4349472376616f0288db"
          }
        },
        {
          "client_id": "62227343866-cja0c9meajv6gljtv0ef30b4ohc04mba.apps.googleusercontent.com",
          "client_type": 3
        }
      ],
      "api_key": [
        {
          "current_key": "AIzaSyBRg7hQDfXxy6gbQ4NGFLNgREAAIHYYOLs"
        }
      ],
      "services": {
        "appinvite_service": {
          "other_platform_oauth_client": [
            {
              "client_id": "62227343866-cja0c9meajv6gljtv0ef30b4ohc04mba.apps.googleusercontent.com",
              "client_type": 3
            }
          ]
        }
      }
    }
  ],
  "configuration_version": "1"
}